{
  "_name_or_path": "JungleLee/bert-toxic-comment-classification",
  "architectures": [
    "BertForSequenceClassification"
  ],
  "attention_probs_dropout_prob": 0.1,
  "classifier_dropout": null,
  "gradient_checkpointing": false,
  "hidden_act": "gelu",
  "hidden_dropout_prob": 0.1,
  "hidden_size": 768,
  "initializer_range": 0.02,
  "intermediate_size": 3072,
  "layer_norm_eps": 1e-12,
  "max_position_embeddings": 512,
  "model_type": "bert",
  "num_attention_heads": 12,
  "num_hidden_layers": 12,
  "pad_token_id": 0,
  "position_embedding_type": "absolute",
  "problem_type": "single_label_classification",
  "torch_dtype": "float32",
  "type_vocab_size": 2,
  "use_cache": true,
  "vocab_size": 30522,
  "id2label": {
    "0": "non-toxic",
    "1": "toxic"
  },
  "label2id": {
    "non-toxic": 0,
    "toxic": 1
  }
}
